{
  "@quasar/icon-genie": {
    "minify_dev": "pngcrush",
    "minify_build": "pngcrush",
    "cordova": {
      "background_color": "#000074",
      "splashscreen_type": "pure"
    },
    "build_always": false,
    "__internal": {
      "dev": {
        "spa": {
          "iconHash": "00b20d635652c70761190e9f784a04ca"
        },
        "pwa": {
          "iconHash": "00b20d635652c70761190e9f784a04ca"
        }
      },
      "build": {
        "spa": {
          "iconHash": "00b20d635652c70761190e9f784a04ca"
        },
        "pwa": {
          "iconHash": "00b20d635652c70761190e9f784a04ca"
        }
      }
    }
  },
  "@quasar/dotenv": {
    "env_development": ".env",
    "env_production": ".env",
    "common_root_object": "none",
    "create_env_files": true,
    "add_env_to_gitignore": true
  }
}